Read byte from EEPROM memory...
0:	FF FF 0 0 0 0 0 0 0 0 0 0 FF FF FF FF
10:	FF FF 13 88 D F 0 4 0 D 2D C0 FF FF FF FF
20:	FF FF 0 0 0 0 0 0 0 0 0 0 FF FF FF FF
30:	FF FF 0 0 0 0 0 0 0 0 0 0 FF FF FF FF
40:	FF FF FF FF FF FF FF FF FF FF FF FF FF FF FF FF
50:	FF FF FF FF FF FF FF FF FF FF FF FF FF FF FF FF
60:	FF FF FF FF FF FF FF FF FF FF FF FF FF FF FF FF
70:	FF FF FF FF FF FF FF FF FF FF FF FF FF FF FF FF
80:	FF FF FF FF FF FF FF FF FF FF FF FF FF FF FF FF
90:	FF FF FF FF FF FF FF FF FF FF FF FF FF FF FF FF
A0:	FF FF FF FF FF FF FF FF FF FF FF FF FF FF FF FF
B0:	FF FF FF FF FF FF FF FF FF FF FF FF FF FF FF FF
C0:	FF FF FF FF FF FF FF FF FF FF FF FF FF FF FF FF
D0:	FF FF FF FF FF FF FF FF FF FF FF FF FF FF FF FF
E0:	FF FF FF FF FF FF FF FF FF FF FF FF FF FF FF FF
F0:	FF FF FF FF FF FF FF FF FF FF FF FF FF FF FF 0
100:	FF FF 0 0 0 0 0 0 0 0 0 0 FF FF FF FF
110:	FF FF 13 88 D F 0 4 0 D 2D C0 FF FF FF FF
120:	FF FF 0 0 0 0 0 0 0 0 0 0 FF FF FF FF
130:	FF FF 0 0 0 0 0 0 0 0 0 0 FF FF FF FF
140:	FF FF FF FF FF FF FF FF FF FF FF FF FF FF FF FF
150:	FF FF FF FF FF FF FF FF FF FF FF FF FF FF FF FF
160:	FF FF FF FF FF FF FF FF FF FF FF FF FF FF FF FF
170:	FF FF FF FF FF FF FF FF FF FF FF FF FF FF FF FF
180:	FF FF FF FF FF FF FF FF FF FF FF FF FF FF FF FF
190:	FF FF FF FF FF FF FF FF FF FF FF FF FF FF FF FF
1A0:	FF FF FF FF FF FF FF FF FF FF FF FF FF FF FF FF
1B0:	FF FF FF FF FF FF FF FF FF FF FF FF FF FF FF FF
1C0:	FF FF FF FF FF FF FF FF FF FF FF FF FF FF FF FF
1D0:	FF FF FF FF FF FF FF FF FF FF FF FF FF FF FF FF
1E0:	FF FF FF FF FF FF FF FF FF FF FF FF FF FF FF FF
1F0:	FF FF FF FF FF FF FF FF FF FF FF FF FF FF FF 0
200:	FF FF 0 0 0 0 0 0 0 0 0 0 FF FF FF FF
210:	FF FF 13 88 D F 0 4 0 D 2D C0 FF FF FF FF
220:	FF FF 0 0 0 0 0 0 0 0 0 0 FF FF FF FF
230:	FF FF 0 0 0 0 0 0 0 0 0 0 FF FF FF FF
240:	FF FF FF FF FF FF FF FF FF FF FF FF FF FF FF FF
250:	FF FF FF FF FF FF FF FF FF FF FF FF FF FF FF FF
260:	FF FF FF FF FF FF FF FF FF FF FF FF FF FF FF FF
270:	FF FF FF FF FF FF FF FF FF FF FF FF FF FF FF FF
280:	FF FF FF FF FF FF FF FF FF FF FF FF FF FF FF FF
290:	FF FF FF FF FF FF FF FF FF FF FF FF FF FF FF FF
2A0:	FF FF FF FF FF FF FF FF FF FF FF FF FF FF FF FF
2B0:	FF FF FF FF FF FF FF FF FF FF FF FF FF FF FF FF
2C0:	FF FF FF FF FF FF FF FF FF FF FF FF FF FF FF FF
2D0:	FF FF FF FF FF FF FF FF FF FF FF FF FF FF FF FF
2E0:	FF FF FF FF FF FF FF FF FF FF FF FF FF FF FF FF
2F0:	FF FF FF FF FF FF FF FF FF FF FF FF FF FF FF 0
300:	FF FF 0 0 0 0 0 0 0 0 0 0 FF FF FF FF
310:	FF FF 13 88 D F 0 4 0 D 2D C0 FF FF FF FF
320:	FF FF 0 0 0 0 0 0 0 0 0 0 FF FF FF FF
330:	FF FF 0 0 0 0 0 0 0 0 0 0 FF FF FF FF
340:	FF FF FF FF FF FF FF FF FF FF FF FF FF FF FF FF
350:	FF FF FF FF FF FF FF FF FF FF FF FF FF FF FF FF
360:	FF FF FF FF FF FF FF FF FF FF FF FF FF FF FF FF
370:	FF FF FF FF FF FF FF FF FF FF FF FF FF FF FF FF
380:	FF FF FF FF FF FF FF FF FF FF FF FF FF FF FF FF
390:	FF FF FF FF FF FF FF FF FF FF FF FF FF FF FF FF
3A0:	FF FF FF FF FF FF FF FF FF FF FF FF FF FF FF FF
3B0:	FF FF FF FF FF FF FF FF FF FF FF FF FF FF FF FF
3C0:	FF FF FF FF FF FF FF FF FF FF FF FF FF FF FF FF
3D0:	FF FF FF FF FF FF FF FF FF FF FF FF FF FF FF FF
3E0:	FF FF FF FF FF FF FF FF FF FF FF FF FF FF FF FF
3F0:	FF FF FF FF FF FF FF FF FF FF FF FF FF FF FF 0
400:	FF FF 0 0 0 0 0 0 0 0 0 0 FF FF FF FF
410:	FF FF 13 88 D F 0 4 0 D 2D C0 FF FF FF FF
420:	FF FF 0 0 0 0 0 0 0 0 0 0 FF FF FF FF
430:	FF FF 0 0 0 0 0 0 0 0 0 0 FF FF FF FF
440:	FF FF FF FF FF FF FF FF FF FF FF FF FF FF FF FF
450:	FF FF FF FF FF FF FF FF FF FF FF FF FF FF FF FF
460:	FF FF FF FF FF FF FF FF FF FF FF FF FF FF FF FF
470:	FF FF FF FF FF FF FF FF FF FF FF FF FF FF FF FF
480:	FF FF FF FF FF FF FF FF FF FF FF FF FF FF FF FF
490:	FF FF FF FF FF FF FF FF FF FF FF FF FF FF FF FF
4A0:	FF FF FF FF FF FF FF FF FF FF FF FF FF FF FF FF
4B0:	FF FF FF FF FF FF FF FF FF FF FF FF FF FF FF FF
4C0:	FF FF FF FF FF FF FF FF FF FF FF FF FF FF FF FF
4D0:	FF FF FF FF FF FF FF FF FF FF FF FF FF FF FF FF
4E0:	FF FF FF FF FF FF FF FF FF FF FF FF FF FF FF FF
4F0:	FF FF FF FF FF FF FF FF FF FF FF FF FF FF FF 0
500:	FF FF 0 0 0 0 0 0 0 0 0 0 FF FF FF FF
510:	FF FF 13 88 D F 0 4 0 D 2D C0 FF FF FF FF
520:	FF FF 0 0 0 0 0 0 0 0 0 0 FF FF FF FF
530:	FF FF 0 0 0 0 0 0 0 0 0 0 FF FF FF FF
540:	FF FF FF FF FF FF FF FF FF FF FF FF FF FF FF FF
550:	FF FF FF FF FF FF FF FF FF FF FF FF FF FF FF FF
560:	FF FF FF FF FF FF FF FF FF FF FF FF FF FF FF FF
570:	FF FF FF FF FF FF FF FF FF FF FF FF FF FF FF FF
580:	FF FF FF FF FF FF FF FF FF FF FF FF FF FF FF FF
590:	FF FF FF FF FF FF FF FF FF FF FF FF FF FF FF FF
5A0:	FF FF FF FF FF FF FF FF FF FF FF FF FF FF FF FF
5B0:	FF FF FF FF FF FF FF FF FF FF FF FF FF FF FF FF
5C0:	FF FF FF FF FF FF FF FF FF FF FF FF FF FF FF FF
5D0:	FF FF FF FF FF FF FF FF FF FF FF FF FF FF FF FF
5E0:	FF FF FF FF FF FF FF FF FF FF FF FF FF FF FF FF
5F0:	FF FF FF FF FF FF FF FF FF FF FF FF FF FF FF 0
600:	FF FF 0 0 0 0 0 0 0 0 0 0 FF FF FF FF
610:	FF FF 13 88 D F 0 4 0 D 2D C0 FF FF FF FF
620:	FF FF 0 0 0 0 0 0 0 0 0 0 FF FF FF FF
630:	FF FF 0 0 0 0 0 0 0 0 0 0 FF FF FF FF
640:	FF FF FF FF FF FF FF FF FF FF FF FF FF FF FF FF
650:	FF FF FF FF FF FF FF FF FF FF FF FF FF FF FF FF
660:	FF FF FF FF FF FF FF FF FF FF FF FF FF FF FF FF
670:	FF FF FF FF FF FF FF FF FF FF FF FF FF FF FF FF
680:	FF FF FF FF FF FF FF FF FF FF FF FF FF FF FF FF
690:	FF FF FF FF FF FF FF FF FF FF FF FF FF FF FF FF
6A0:	FF FF FF FF FF FF FF FF FF FF FF FF FF FF FF FF
6B0:	FF FF FF FF FF FF FF FF FF FF FF FF FF FF FF FF
6C0:	FF FF FF FF FF FF FF FF FF FF FF FF FF FF FF FF
6D0:	FF FF FF FF FF FF FF FF FF FF FF FF FF FF FF FF
6E0:	FF FF FF FF FF FF FF FF FF FF FF FF FF FF FF FF
6F0:	FF FF FF FF FF FF FF FF FF FF FF FF FF FF FF 0
700:	FF FF 0 0 0 0 0 0 0 0 0 0 FF FF FF FF
710:	FF FF 13 88 D F 0 4 0 D 2D C0 FF FF FF FF
720:	FF FF 0 0 0 0 0 0 0 0 0 0 FF FF FF FF
730:	FF FF 0 0 0 0 0 0 0 0 0 0 FF FF FF FF
740:	FF FF FF FF FF FF FF FF FF FF FF FF FF FF FF FF
750:	FF FF FF FF FF FF FF FF FF FF FF FF FF FF FF FF
760:	FF FF FF FF FF FF FF FF FF FF FF FF FF FF FF FF
770:	FF FF FF FF FF FF FF FF FF FF FF FF FF FF FF FF
780:	FF FF FF FF FF FF FF FF FF FF FF FF FF FF FF FF
790:	FF FF FF FF FF FF FF FF FF FF FF FF FF FF FF FF
7A0:	FF FF FF FF FF FF FF FF FF FF FF FF FF FF FF FF
7B0:	FF FF FF FF FF FF FF FF FF FF FF FF FF FF FF FF
7C0:	FF FF FF FF FF FF FF FF FF FF FF FF FF FF FF FF
7D0:	FF FF FF FF FF FF FF FF FF FF FF FF FF FF FF FF
7E0:	FF FF FF FF FF FF FF FF FF FF FF FF FF FF FF FF
7F0:	FF FF FF FF FF FF FF FF FF FF FF FF FF FF FF 0
